// Jest Snapshot v1, https://goo.gl/fbAQLP

exports[`Register [component] -> should render correctly 1`] = `ShallowWrapper {}`;

exports[`UserInfo [component] -> should render correctly 1`] = `ShallowWrapper {}`;
